Untitled
…
#5

PlayersPerState <- CityState %>%
  group_by(State) %>%
  summarize(count = n())
PlayersPerState

## # A tibble: 21 x 2
##    State        count
##    <chr>        <int>
##  1 " Ariz."         4
##  2 " Ark."          1
##  3 " Australia"     1
##  4 " Calif."        2
##  5 " Fla."         14
##  6 " Ga."           3
##  7 " Ill."          6
##  8 " Iowa"         42
##  9 " Kan."          4
## 10 " Mich"          1
## #  with 11 more rows
…
defState <- defClean %>%
  left_join(CityState, by = c('Name')) %>%
  select(Name, State) %>%
  distinct()
defState

## # A tibble: 37 x 2
##    Name              State   
##    <fct>             <chr>   
##  1 Rose, Mike        " Ohio" 
##  2 Hummel, Jake      " Iowa" 
##  3 Vance, O'Rien     " Iowa" 
##  4 Young, Isheem     " Pa."  
##  5 Bailey, JaQuan    " Fla." 
##  6 Azunna, Arnold    " Texas"
##  7 Kyle, Tayvonn     " Ga."  
##  8 Uwazurike, Eyioma " Mich."
##  9 Young, Datrone    " Fla." 
## 10 Vaughn, Gerry     " Ga."  
## #  with 27 more rows
…
def2019Clean <- def2019Clean %>%
  group_by(Name) %>%
  summarize_at(vars(Tackles_Solo), list(Total_Solo_Tackles2019 = sum, Mean_Solo_Tackles2019 = mean))
def2019Clean

## # A tibble: 43 x 3
##    Name               Total_Solo_Tackles2019 Mean_Solo_Tackles2019
##    <fct>                               <dbl>                 <dbl>
##  1 Akers, Landen                           9                0.692 
##  2 Allen, Chase                            2                0.154 
##  3 Azunna, Arnold                         18                1.64  
##  4 Bailey, JaQuan                          2                0.5   
##  5 Bickham, Justin                        20                1.67  
##  6 Downing, Trevor                         1                0.0769
##  7 Eisworth, Greg                         37                3.08  
##  8 Gescheidler, Jared                      3                0.273 
##  9 Grant, Jatairis                         5                0.455 
## 10 Greene, Conner                          1                0.0769
## #  with 33 more rows
…
defprogress2019_to_2020 <- def2019Clean %>% inner_join(defClean)

## Joining, by = "Name"

defprogress2019_to_2020

## # A tibble: 170 x 13
##    Name  Total_Solo_Tack Mean_Solo_Tackl Tackles_Solo Tackles_ASST Tackles_TFL
##    <fct>            <dbl>            <dbl>        <dbl>        <dbl>       <dbl>
##  1 Aker                9            0.692            1            0           0
##  2 Aker                9            0.692            0            0           0
##  3 Aker                9            0.692            0            0           0
##  4 Aker                9            0.692            0            2           0
##  5 Aker                9            0.692            0            0           0
##  6 Aker                9            0.692            1            0           0
##  7 Aker                9            0.692            0            0           0
##  8 Aker                9            0.692            0            0           0
##  9 Aker                9            0.692            0            0           0
## 10 Aker                9            0.692            0            1           0
## #  with 160 more rows, and 7 more variables: Tackles_Sack <dbl>,
## #   Turnover_FF <dbl>, Turnover_FR <dbl>, Turnover_INT <dbl>, Pass_QBH <dbl>,
## #   Pass_PB <dbl>, Opponent <fct>

offprogress2019_to_2020 <- off2019Clean %>% 
  inner_join(offClean)

## Joining, by = "Name"

offprogress2019_to_2020

## # A tibble: 120 x 14
##    Name  Total_Receiving Mean_Receiving_ Receiving_REC Receiving_YDS
##    <fct>            <dbl>            <dbl>         <dbl>         <dbl>
##  1 Aker              109             8.38             0             0
##  2 Aker              109             8.38             2            60
##  3 Aker              109             8.38             1            35
##  4 Aker              109             8.38             4            34
##  5 Aker              109             8.38             0             0
##  6 Aker              109             8.38             6            76
##  7 Aker              109             8.38             1            11
##  8 Aker              109             8.38             0             0
##  9 Aker              109             8.38             1            10
## 10 Aker              109             8.38             1             2
## #  with 110 more rows, and 9 more variables: Receiving_TD <dbl>,
## #   Rushing_ATT <dbl>, Rushing_YDS <dbl>, Rushing_TD <dbl>,
## #   `Passing_CMP-ATT` <dbl>, Passing_YDS <dbl>, Passing_TD <dbl>,
## #   Passing_INT <dbl>, Opponent <fct>
