Team
…
#4:

CityState <- bioClean %>%
  separate(Hometown,c('City', 'State'), sep = ',', convert = TRUE, remove = FALSE) %>%
  select(-Position, -Height_In_Inches, -Weight, -Class, -Hometown, -Highschool)
CityState

## # A tibble: 116 x 3
##    Name                 City           State   
##    <fct>                <chr>          <chr>   
##  1 Akers, Landen        Cedar Rapids   " Iowa" 
##  2 Allen, Chase         Nixa           " Mo."  
##  3 Anderson, Ezeriah    Seffner        " Fla." 
##  4 Antoine Jr. , Michal Ft. Lauderdale " Fla." 
##  5 Assalley, Connor     Naperville     " Ill." 
##  6 Azunna, Arnold       Grand Prairie  " Texas"
##  7 Bailey, Cordarrius   Clarksdale     " Miss."
##  8 Bailey, JaQuan       Jacksonville   " Fla." 
##  9 Bailey, Joshua       Jacksonville   " Fla." 
## 10 Bitter, Aidan        Tampa          " Fla." 
## #  with 106 more rows

#5:

PlayersByState <- CityState %>%
  group_by(State) %>%
  summarize(count = n())
PlayersByState

## # A tibble: 21 x 2
##    State        count
##  * <chr>        <int>
##  1 " Ariz."         4
##  2 " Ark."          1
##  3 " Australia"     1
##  4 " Calif."        2
##  5 " Fla."         14
##  6 " Ga."           3
##  7 " Ill."          6
##  8 " Iowa"         42
##  9 " Kan."          4
## 10 " Mich"          1
## #  with 11 more rows
…
defState <- defClean %>%
  left_join(CityState, by = c('Name')) %>%
  select(Name, State) %>%
  distinct()
defState

## # A tibble: 37 x 2
##    Name              State   
##    <fct>             <chr>   
##  1 Rose, Mike        " Ohio" 
##  2 Hummel, Jake      " Iowa" 
##  3 Vance, O'Rien     " Iowa" 
##  4 Young, Isheem     " Pa."  
##  5 Bailey, JaQuan    " Fla." 
##  6 Azunna, Arnold    " Texas"
##  7 Kyle, Tayvonn     " Ga."  
##  8 Uwazurike, Eyioma " Mich."
##  9 Young, Datrone    " Fla." 
## 10 Vaughn, Gerry     " Ga."  
## #  with 27 more rows
…
def2Clean2 <- defClean2 %>%
  group_by(Name) %>%
  summarize_at(vars(Tackles_Solo), list(Total_Solo_Tackles2019 = sum, Mean_Solo_Tackles2019 = mean))
def2Clean2

## # A tibble: 43 x 3
##    Name               Total_Solo_Tackles2019 Mean_Solo_Tackles2019
##  * <fct>                               <dbl>                 <dbl>
##  1 Akers, Landen                           9                0.692 
##  2 Allen, Chase                            2                0.154 
##  3 Azunna, Arnold                         18                1.64  
##  4 Bailey, JaQuan                          2                0.5   
##  5 Bickham, Justin                        20                1.67  
##  6 Downing, Trevor                         1                0.0769
##  7 Eisworth, Greg                         37                3.08  
##  8 Gescheidler, Jared                      3                0.273 
##  9 Grant, Jatairis                         5                0.455 
## 10 Greene, Conner                          1                0.0769
## #  with 33 more rows

def2Clean <- defClean %>%
  group_by(Name) %>%
  summarize_at(vars(Tackles_Solo), list(Total_Solo_Tackles2020 = sum, Mean_Solo_Tackles2020 = mean))
def2Clean

## # A tibble: 37 x 3
##    Name              Total_Solo_Tackles2020 Mean_Solo_Tackles2020
##  * <fct>                              <dbl>                 <dbl>
##  1 Akers, Landen                          3                 0.25 
##  2 Azunna, Arnold                        15                 1.67 
##  3 Bailey, JaQuan                        20                 1.67 
##  4 Bailey, Joshua                         8                 0.667
##  5 Bankston, Latrell                      8                 0.727
##  6 Brock, Jirehl                          1                 0.1  
##  7 Chambers, Mason                        3                 0.5  
##  8 Davis, Dae'Shawn                       3                 0.25 
##  9 Hathcock, Koby                         0                 0    
## 10 Horne, Aric                            7                 0.636
## #  with 27 more rows
…
